Intro to data (lab 1 for BIOS 26122)
…
cat("\n")

# tidyverse to calculate by row
heart_rates %>%
  rowwise() %>%
  mutate(sum_na = sum(is.na(c_across())))

Warning: There was 1 warning in `mutate()`.
ℹ In argument: `sum_na = sum(is.na(c_across()))`.
ℹ In row 1.
Caused by warning:
! Using `c_across()` without supplying `cols` was deprecated in dplyr 1.1.0.
ℹ Please supply `cols` instead.

# A tibble: 1,068 × 6
# Rowwise: 
   Rest1   Ex1 Rest2   Ex2  Year sum_na
   <dbl> <dbl> <dbl> <dbl> <dbl>  <int>
 1    86   103    84   112  2017      0
 2    68   108    68   128  2017      0
 3    71    88    82    96  2017      0
 4    64    75    66    78  2017      0
 5    78   119   109   111  2017      0
 6    60    89    60    87  2017      0
 7    68    76    72    76  2017      0
 8    77    90    81    99  2017      0
 9    70    66    76    75  2017      0
10    65    63    83    80  2017      0
# ℹ 1,058 more rows
…
The number of NAs in each column: 

cat(colSums(is.na(viral_mut_rates)))

0 0 0 0 17 84 26 17 86 84 0

cat("\n")

# tidyverse to calculate by row
viral_mut_rates |> 
  select(G,K, mu) |> 
  rowwise() |> 
  mutate(sum_na = sum(is.na(c_across())))

# A tibble: 111 × 4
# Rowwise: 
        G           K           mu sum_na
    <dbl>       <dbl>        <dbl>  <int>
 1  35.9  NA           0.000000131      1
 2  35.3   0.000072   NA                1
 3  35.9   0.0000346  NA                1
 4 152.    0.0000821   0.000000059      0
 5 125.    0.00000626 NA                1
 6 235    NA           0.0000002        1
 7 169    NA           0.000000098      1
 8   7.9   0.0039     NA                1
 9   5.15  0.0000434  NA                1
10   5.13  0.000017   NA                1
# ℹ 101 more rows
…
The number of NAs in each column: 

cat(colSums(is.na(neuro_blast)))

0 0 0 0 0 0 0 0 0 0 0 0 0 0 0 0 0 0 0 0 0 0 0 0

cat("\n")

# tidyverse to calculate by row
neuro_blast |>  select(-c(`sample id`, high_risk)) |> 
  rowwise() |> 
  mutate(sum_na = sum(is.na(c_across())))

# A tibble: 498 × 23
# Rowwise: 
     MYCN  STC1 P4HA1 BHLHE40 HIF1A ELVIDGE_HIF1A_TARGETS_UP
    <dbl> <dbl> <dbl>   <dbl> <dbl>                    <dbl>
 1   42.5  2.95 12.9     20.9  83.4                   0.0661
 2   25.5  3.09 10.9     14.1  86.4                   0.410 
 3  883.   6.02 12.7     22.3  77.6                   0.0522
 4  433.   3.09 19.7     33.5  95.2                   0.102 
 5  854.  10.9  22.7     31.2 103.                    0.273 
 6  111.   9.32 13.6     24.4 105.                   -0.251 
 7   63.6  6.56 13.5     91.4  95.7                   0.132 
 8 1558.  58.7   9.72    32.1 128.                    0.135 
 9  727.  16.1  23.9     51.1  88.7                   0.188 
10 1234.   4.24 23.3     24.2 127.                    0.210 
# ℹ 488 more rows
# ℹ 17 more variables: `Quiescence Down Cheung` <dbl>,
#   `T cell exhaustion` <dbl>, HALLMARK_INFLAMMATORY_RESPONSE <dbl>,
#   HALLMARK_HYPOXIA <dbl>, ST8SIA1 <dbl>, `Quiescence Up Cheung` <dbl>,
#   HALLMARK_TNFA_SIGNALING_VIA_NFKB <dbl>, HALLMARK_MITOTIC_SPINDLE <dbl>,
#   HALLMARK_DNA_REPAIR <dbl>, HALLMARK_G2M_CHECKPOINT <dbl>,
#   HALLMARK_APOPTOSIS <dbl>, HALLMARK_E2F_TARGETS <dbl>, …
