Resampling: cross-validation and bootstrap (lab 5 for BIOS 26122)
…
collect_metrics(tune_res)

# A tibble: 100 × 7
     penalty .metric .estimator  mean     n std_err .config              
       <dbl> <chr>   <chr>      <dbl> <int>   <dbl> <chr>                
 1 0.00001   rmse    standard   4.46     10  0.235  Preprocessor1_Model01
 2 0.00001   rsq     standard   0.654    10  0.0284 Preprocessor1_Model01
 3 0.0000133 rmse    standard   4.46     10  0.235  Preprocessor1_Model02
 4 0.0000133 rsq     standard   0.654    10  0.0284 Preprocessor1_Model02
 5 0.0000176 rmse    standard   4.46     10  0.235  Preprocessor1_Model03
 6 0.0000176 rsq     standard   0.654    10  0.0284 Preprocessor1_Model03
 7 0.0000233 rmse    standard   4.46     10  0.235  Preprocessor1_Model04
 8 0.0000233 rsq     standard   0.654    10  0.0284 Preprocessor1_Model04
 9 0.0000309 rmse    standard   4.46     10  0.235  Preprocessor1_Model05
10 0.0000309 rsq     standard   0.654    10  0.0284 Preprocessor1_Model05
# ℹ 90 more rows
…
collect_metrics(tune_res)

# A tibble: 100 × 7
     penalty .metric .estimator  mean     n std_err .config              
       <dbl> <chr>   <chr>      <dbl> <int>   <dbl> <chr>                
 1 0.00001   rmse    standard   4.37     10  0.175  Preprocessor1_Model01
 2 0.00001   rsq     standard   0.676    10  0.0284 Preprocessor1_Model01
 3 0.0000126 rmse    standard   4.37     10  0.175  Preprocessor1_Model02
 4 0.0000126 rsq     standard   0.676    10  0.0284 Preprocessor1_Model02
 5 0.0000160 rmse    standard   4.37     10  0.175  Preprocessor1_Model03
 6 0.0000160 rsq     standard   0.676    10  0.0284 Preprocessor1_Model03
 7 0.0000202 rmse    standard   4.37     10  0.175  Preprocessor1_Model04
 8 0.0000202 rsq     standard   0.676    10  0.0284 Preprocessor1_Model04
 9 0.0000256 rmse    standard   4.37     10  0.175  Preprocessor1_Model05
10 0.0000256 rsq     standard   0.676    10  0.0284 Preprocessor1_Model05
# ℹ 90 more rows
…
